{
    "originalSdkFolder": "D:\\HerramientasD\\Wwise\\Wwise2023.1.5.8522\\SDK",
    "currentVersion": {
        "nickname": "",
        "build": 3119,
        "major": 1,
        "minor": 5,
        "year": 2023
    },
    "installedBundleGroups": [
        {
            "id": "Packages",
            "valueId": "Unity"
        },
        {
            "id": "Packages",
            "valueId": "Extensions"
        },
        {
            "id": "DeploymentPlatforms",
            "valueId": "Mac"
        },
        {
            "id": "DeploymentPlatforms",
            "valueId": "Windows"
        }
    ]
}