%YAML 1.1
%TAG !u! tag:unity3d.com,2011:
--- !u!74 &7400000
AnimationClip:
  m_ObjectHideFlags: 0
  m_CorrespondingSourceObject: {fileID: 0}
  m_PrefabInstance: {fileID: 0}
  m_PrefabAsset: {fileID: 0}
  m_Name: Escalando
  serializedVersion: 7
  m_Legacy: 0
  m_Compressed: 0
  m_UseHighQualityCurve: 1
  m_RotationCurves: []
  m_CompressedRotationCurves: []
  m_EulerCurves: []
  m_PositionCurves: []
  m_ScaleCurves: []
  m_FloatCurves: []
  m_PPtrCurves:
  - serializedVersion: 2
    curve:
    - time: 0
      value: {fileID: 21300000, guid: 945b3e87cbc2c0746a49238c6d956d9c, type: 3}
    - time: 0.05
      value: {fileID: 21300000, guid: 5d9cff91f45bd614f97487cbfbe3da97, type: 3}
    - time: 0.1
      value: {fileID: 21300000, guid: 5d9cff91f45bd614f97487cbfbe3da97, type: 3}
    - time: 0.15
      value: {fileID: 21300000, guid: f281fd48a45f83b4bbb6aa43b5ea57f0, type: 3}
    - time: 0.18333334
      value: {fileID: 21300000, guid: 41a0d9e8639897d488e71a9ad64546ef, type: 3}
    - time: 0.23333333
      value: {fileID: 21300000, guid: fbf0349c023ae88449b8e27540e08056, type: 3}
    - time: 0.28333333
      value: {fileID: 21300000, guid: bcb331b71c1c99d44899434d1b9619ed, type: 3}
    - time: 0.33333334
      value: {fileID: 21300000, guid: e18f4015df9ea6541ada8ecbe861624c, type: 3}
    - time: 0.38333333
      value: {fileID: 21300000, guid: 231b91bda40768540aa427c616699dd7, type: 3}
    - time: 0.43333334
      value: {fileID: 21300000, guid: 7c737e739bcc6ef4b8ccf156317480b5, type: 3}
    - time: 0.48333332
      value: {fileID: 21300000, guid: e46be31af69a36d40b97530888b4dfff, type: 3}
    - time: 0.51666665
      value: {fileID: 21300000, guid: 199d9dc8b74cce44aa289d28794b9fc9, type: 3}
    - time: 0.56666666
      value: {fileID: 21300000, guid: 1bc1c863030f63440a60f50ea5ce28af, type: 3}
    - time: 0.6166667
      value: {fileID: 21300000, guid: 9d823353027bb9c47a14ea95c9809b4c, type: 3}
    - time: 0.6666667
      value: {fileID: 21300000, guid: cbcd48bb79386c7458c0e1b6679220d8, type: 3}
    attribute: m_Sprite
    path: 
    classID: 212
    script: {fileID: 0}
    flags: 2
  m_SampleRate: 60
  m_WrapMode: 0
  m_Bounds:
    m_Center: {x: 0, y: 0, z: 0}
    m_Extent: {x: 0, y: 0, z: 0}
  m_ClipBindingConstant:
    genericBindings:
    - serializedVersion: 2
      path: 0
      attribute: 0
      script: {fileID: 0}
      typeID: 212
      customType: 23
      isPPtrCurve: 1
      isIntCurve: 0
      isSerializeReferenceCurve: 0
    pptrCurveMapping:
    - {fileID: 21300000, guid: 945b3e87cbc2c0746a49238c6d956d9c, type: 3}
    - {fileID: 21300000, guid: 5d9cff91f45bd614f97487cbfbe3da97, type: 3}
    - {fileID: 21300000, guid: 5d9cff91f45bd614f97487cbfbe3da97, type: 3}
    - {fileID: 21300000, guid: f281fd48a45f83b4bbb6aa43b5ea57f0, type: 3}
    - {fileID: 21300000, guid: 41a0d9e8639897d488e71a9ad64546ef, type: 3}
    - {fileID: 21300000, guid: fbf0349c023ae88449b8e27540e08056, type: 3}
    - {fileID: 21300000, guid: bcb331b71c1c99d44899434d1b9619ed, type: 3}
    - {fileID: 21300000, guid: e18f4015df9ea6541ada8ecbe861624c, type: 3}
    - {fileID: 21300000, guid: 231b91bda40768540aa427c616699dd7, type: 3}
    - {fileID: 21300000, guid: 7c737e739bcc6ef4b8ccf156317480b5, type: 3}
    - {fileID: 21300000, guid: e46be31af69a36d40b97530888b4dfff, type: 3}
    - {fileID: 21300000, guid: 199d9dc8b74cce44aa289d28794b9fc9, type: 3}
    - {fileID: 21300000, guid: 1bc1c863030f63440a60f50ea5ce28af, type: 3}
    - {fileID: 21300000, guid: 9d823353027bb9c47a14ea95c9809b4c, type: 3}
    - {fileID: 21300000, guid: cbcd48bb79386c7458c0e1b6679220d8, type: 3}
  m_AnimationClipSettings:
    serializedVersion: 2
    m_AdditiveReferencePoseClip: {fileID: 0}
    m_AdditiveReferencePoseTime: 0
    m_StartTime: 0
    m_StopTime: 0.68333334
    m_OrientationOffsetY: 0
    m_Level: 0
    m_CycleOffset: 0
    m_HasAdditiveReferencePose: 0
    m_LoopTime: 1
    m_LoopBlend: 0
    m_LoopBlendOrientation: 0
    m_LoopBlendPositionY: 0
    m_LoopBlendPositionXZ: 0
    m_KeepOriginalOrientation: 0
    m_KeepOriginalPositionY: 1
    m_KeepOriginalPositionXZ: 0
    m_HeightFromFeet: 0
    m_Mirror: 0
  m_EditorCurves: []
  m_EulerEditorCurves: []
  m_HasGenericRootTransform: 0
  m_HasMotionFloatCurves: 0
  m_Events: []
